12 Simulating hierarchical data
…
Or, if you wanted scales to vary down at the individual level, you can drop the times argument entirely, using similar code to what was used to generate the researcher variable above:

R

scales_lvl1 <- sample(rep(c("chromatic", "metallic"), length.out = ni*nj*nk))

Checking the structure

It’s useful here to pause and look at the variables you’ve created, all together, to check that the structure matches what you were expecting to see.

R

tibble(dragon, wingspan, scales, mountain, cave, researcher)

# A tibble: 1,050 × 6
   dragon wingspan scales    mountain cave  researcher
    <int>    <dbl> <chr>     <chr>    <fct> <chr>     
 1      1       29 chromatic A        1     LO        
 2      2       55 chromatic A        1     CN        
 3      3       80 chromatic A        1     YW        
 4      4       15 chromatic A        1     RS        
 5      5       74 chromatic A        1     AP        
 6      6       41 chromatic A        1     RS        
 7      7       26 chromatic A        1     KH        
 8      8       95 chromatic A        1     CN        
 9      9       24 chromatic A        1     AP        
10     10       27 chromatic A        1     YW        
# ℹ 1,040 more rows
…
